$MeshFormat
2.2 0 8
$EndMeshFormat
$Nodes
5
1 1.3 -0.5 0
2 -1.1 -0.9 0
3 -0.3 0.5 0
4 1 0.6 0
5 0.1 -0.7 0
$EndNodes
$Elements
8
1 1 2 8 1 2 5
2 1 2 8 1 5 1
3 1 2 7 2 1 4
4 1 2 7 3 4 3
5 1 2 8 4 3 2
6 2 2 9 6 5 1 4
7 2 2 9 6 5 4 3
8 2 2 9 6 2 5 3
$EndElements
